Problem Set #4
…
New grid for each model.

# Small sample 
small_grid = tibble(
  b_numlang = seq(b_numlang_mle_small - 0.5,
                 b_numlang_mle_small + 0.5,
            length.out = 200)) %>% 
  mutate(loglike_values = map_dbl(b_numlang, log_lik))

small_grid

# A tibble: 200 × 2
   b_numlang loglike_values
       <dbl>          <dbl>
 1    -0.500         -1032.
 2    -0.495         -1027.
 3    -0.490         -1021.
 4    -0.485         -1016.
 5    -0.480         -1011.
 6    -0.475         -1005.
 7    -0.470         -1000.
 8    -0.465          -995.
 9    -0.460          -989.
10    -0.455          -984.
# ℹ 190 more rows

# Medium sample 

med_grid = tibble(
  b_numlang = seq(b_numlang_mle_medium - 0.5,
                  b_numlang_mle_medium + 0.5,
            length.out = 200)) %>% 
  mutate(loglike_values = map_dbl(b_numlang, log_lik))

med_grid

# A tibble: 200 × 2
   b_numlang loglike_values
       <dbl>          <dbl>
 1    -0.463          -993.
 2    -0.458          -988.
 3    -0.453          -983.
 4    -0.448          -977.
 5    -0.443          -972.
 6    -0.438          -967.
 7    -0.433          -961.
 8    -0.428          -956.
 9    -0.423          -951.
10    -0.418          -945.
# ℹ 190 more rows

# Full sample/data 

full_grid = tibble(
  b_numlang = seq(b_numlang_mle_full - 0.5,
                  b_numlang_mle_full + 0.5,
            length.out = 200)) %>% 
  mutate(loglike_values = map_dbl(b_numlang, log_lik))

full_grid

# A tibble: 200 × 2
   b_numlang loglike_values
       <dbl>          <dbl>
 1    -0.469          -999.
 2    -0.463          -993.
 3    -0.458          -988.
 4    -0.453          -983.
 5    -0.448          -977.
 6    -0.443          -972.
 7    -0.438          -967.
 8    -0.433          -961.
 9    -0.428          -956.
10    -0.423          -951.
# ℹ 190 more rows
…
