Problem Set #2
…
scenario = crossing(
  poverty_rate = seq(
    min(childcare$poverty_rate, na.rm = TRUE),
    max(childcare$poverty_rate, na.rm = TRUE)),
  
  state = "North Carolina", 
  year = "2012"
  )

preds = augment(child_mod, newdata = scenario, se_fit = TRUE,
                interval = "confidence")
preds

# A tibble: 53 × 7
   poverty_rate state          year  .fitted .lower .upper .se.fit
          <int> <chr>          <chr>   <dbl>  <dbl>  <dbl>   <dbl>
 1            0 North Carolina 2012     173.   170.   176.    1.60
 2            1 North Carolina 2012     171.   168.   174.    1.59
 3            2 North Carolina 2012     170.   167.   173.    1.57
 4            3 North Carolina 2012     168.   165.   171.    1.56
 5            4 North Carolina 2012     166.   163.   169.    1.55
 6            5 North Carolina 2012     165.   162.   168.    1.54
 7            6 North Carolina 2012     163.   160.   166.    1.53
 8            7 North Carolina 2012     161.   158.   164.    1.52
 9            8 North Carolina 2012     160.   157.   163.    1.52
10            9 North Carolina 2012     158.   155.   161.    1.51
# ℹ 43 more rows
…
scenario = crossing(
  poverty_rate = seq(
    min(childcare$poverty_rate, na.rm = TRUE),
    max(childcare$poverty_rate, na.rm = TRUE),
    length.out = 100
  ),
  state = "North Carolina",
  year = "2012") %>% 
  mutate(poverty_rate2 = poverty_rate^2)

preds2 = augment(quad_child, newdata = scenario, se_fit = TRUE,
                interval = "confidence")
preds2

# A tibble: 100 × 8
   poverty_rate state          year  poverty_rate2 .fitted .lower .upper .se.fit
          <dbl> <chr>          <chr>         <dbl>   <dbl>  <dbl>  <dbl>   <dbl>
 1        0     North Carolina 2012          0        200.   197.   203.    1.77
 2        0.526 North Carolina 2012          0.277    197.   194.   201.    1.74
 3        1.05  North Carolina 2012          1.11     195.   191.   198.    1.71
 4        1.58  North Carolina 2012          2.49     192.   189.   195.    1.68
 5        2.11  North Carolina 2012          4.43     189.   186.   193.    1.66
 6        2.63  North Carolina 2012          6.92     187.   184.   190.    1.63
 7        3.16  North Carolina 2012          9.97     185.   181.   188.    1.61
 8        3.68  North Carolina 2012         13.6      182.   179.   185.    1.59
 9        4.21  North Carolina 2012         17.7      180.   177.   183.    1.57
10        4.74  North Carolina 2012         22.4      178.   175.   181.    1.56
# ℹ 90 more rows
…
scenario2 = crossing(
  num_distinct_donors = seq(
    min(bonica$num_distinct_donors, na.rm = TRUE),
    max(bonica$num_distinct_donors, na.rm = TRUE),
    length.out = 100
  ),
  cycle = median(bonica$cycle),
  party = "R"
)

preds3 = augment(log_mod, newdata = scenario2, se_fit = TRUE,
                interval = "confidence")
preds3

# A tibble: 100 × 7
   num_distinct_donors cycle party   .fitted    .lower   .upper .se.fit
                 <dbl> <dbl> <chr>     <dbl>     <dbl>    <dbl>   <dbl>
 1                  1   2016 R     -1168774. -1344653. -992895.  89716.
 2               2039.  2016 R      2458428.  2326488. 2590369.  67303.
 3               4077.  2016 R      2788243.  2644147. 2932339.  73503.
 4               6116.  2016 R      2981202.  2829277. 3133126.  77496.
 5               8154.  2016 R      3118116.  2960369. 3275863.  80466.
 6              10192.  2016 R      3224319.  3061920. 3386717.  82839.
 7              12230.  2016 R      3311094.  3144814. 3477374.  84819.
 8              14269.  2016 R      3384463.  3214849. 3554077.  86520.
 9              16307.  2016 R      3448018.  3275480. 3620557.  88012.
10              18345.  2016 R      3504078.  3328934. 3679223.  89341.
# ℹ 90 more rows
…
There is some sort of growth rate for the amount of donors a candidate may have and the total dollars raised. The growth surges for only a few amount of donors until it plateaus. This may corroborate the theory that when constituents are aware of the amount of support a candidate has, the amount the give drops off.

Question 4

I will use the landfill dataset from the last problem set and analyze the same X-Y relationship between the amount of wells (Y) and the waste in place (X). I will control again for current status of the landfills.

library(readxl)

Landfills = read_xlsx("landfilllmopdata.xlsx", sheet = 2) %>% 
  janitor::clean_names() %>% 
  tidyr::drop_na()

Landfills 

# A tibble: 31 × 42
   ghgrp_id landfill_id landfill_name      state landfill_alias physical_address
      <dbl>       <dbl> <chr>              <chr> <chr>          <chr>           
 1  1006026        2052 City of Fort Smit… AR    Fort Smith Sa… 5900 Commerce R…
 2  1007736         106 Cummings Road Lan… CA    City Garbage … 5775 Cummings R…
 3  1002107          62 Frank R. Bowerman… CA    Bee Canyon SLF 11002 Bee Canyo…
 4  1003918         338 Mid-Valley Sanita… CA    Fontana Refus… 2390 N. Alder A…
 5  1002320         232 Olinda Alpha SLF   CA    Olinda SLF     1942 N. Valenci…
 6  1004692         270 San Timoteo Solid… CA    San Timoteo S… 31 Refuse Road  
 7  1002901         430 Bee Ridge LF       FL    Bee Ridge Roa… 8350 Bee Ridge …
 8  1000349         431 Osceola Landfill   FL    Seminole Coun… 1930 E. Osceola…
 9  1007898         409 Springhill Region… FL    Springhill No… 4945 W State Hw…
10  1001909         398 Zemel Road Landfi… FL    Charlotte Cou… 29751 Zemel Road
# ℹ 21 more rows
# ℹ 36 more variables: city <chr>, county <chr>, zip_code <chr>,
#   latitude <dbl>, longitude <dbl>, composting <chr>, ownership_type <chr>,
#   landfill_owner_organization_s <chr>, landfill_operator_organization <chr>,
#   year_landfill_opened <dbl>, landfill_closure_year <dbl>,
#   current_landfill_status <chr>, design_landfill_area_acres <dbl>,
#   current_landfill_area_acres <dbl>, design_landfill_depth_feet <dbl>, …
…
