Problem Set #3
…
   mutate(South = if_else(x8_st %in% c("AL", "AR", "FL", "GA", "KY" ,"LA", "MS",
         "NC", "SC", "TN", "TX", "VA"), 1, 0)) %>%
  mutate(water = if_else(x53_5_3_water > 0, 1, 0)) %>% 
  mutate(total_thousand_pounds = x65_on_site_release_total/1000) %>% 
  mutate(transfer_thousand_pounds = x106_6_2_total_transfer/1000) %>% 
    drop_na()

new_waste

# A tibble: 77,295 × 9
   x4_facility_name                   x8_st x53_5_3_water x65_on_site_release_…¹
   <chr>                              <chr>         <dbl>                  <dbl>
 1 CHEVRON PHILLIPS CHEMICAL CO LP    TX                0                 42134 
 2 POLYNT COMPOSITES USA INC. (FORME… IL                0                  1119 
 3 FREUDENBERG-NOK SEALING TECHNOLOG… NH                5                    14 
 4 PRODUCERS DAIRY FOODS INC          CA                0                    10 
 5 PHILLIPS 66 CO BILLINGS REFINERY   MT                0                 13528.
 6 ALLFAST FASTENING SYSTEMS LLC      CA                0                     0 
 7 CHEMICAL WASTE MANAGEMENT          AL                0                    90 
 8 FORD MOTOR CO SHARONVILLE PLANT    OH                0                   130 
 9 OHIO REFINING CO                   OH                0                  3300 
10 GIBSON GENERATING STATION          IN                0                 51027 
# ℹ 77,285 more rows
# ℹ abbreviated name: ¹​x65_on_site_release_total
# ℹ 5 more variables: x106_6_2_total_transfer <dbl>, South <dbl>, water <dbl>,
#   total_thousand_pounds <dbl>, transfer_thousand_pounds <dbl>
…
Within the linear model, the coefficient for the South matches the difference in means displaying that when a facilities is located in the South, their likelihood for surface water contamination increases by 5.5 percentage points.

According to the logit model, facilities in southern states have ~1.6x the odds of having surface water contamination. In essence, facilities in the South have 1.6% more incidents of surface water contamination than those not in the South.

scenarios = 
  crossing(South = c(1, 0), 
  transfer_thousand_pounds = mean(new_waste$transfer_thousand_pounds, na.rm = TRUE),
  total_thousand_pounds = mean(new_waste$total_thousand_pounds, na.rm = TRUE))

augment(mod_water_logit, newdata = scenarios, type.predict = "response") %>% 
  select(South, `Pr(water)` = .fitted)

# A tibble: 2 × 2
  South `Pr(water)`
  <dbl>       <dbl>
1     0       0.106
2     1       0.162

0.162 - 0.106

[1] 0.056

The probability of surface water contamination by facilities located in the South (16%) vs not in the South (11%) reflects the group means we calculated earlier. The effect of surface water contamination by facilities given their placement in the South is approximately 0.056, matching the group mean difference.

me_water = comparisons(
  mod_water, variables = "South", 
  newdata = datagrid(transfer_thousand_pounds = seq(0 , 7000000, by = 2000)))
me_water

 transfer_thousand_pounds Estimate Std. Error    z Pr(>|z|)     S  2.5 % 97.5 %
                        0   0.0555    0.00245 22.7   <0.001 375.0 0.0507 0.0603
                     2000   0.0555    0.00245 22.7   <0.001 375.0 0.0507 0.0603
                     4000   0.0555    0.00245 22.7   <0.001 375.0 0.0507 0.0603
                     6000   0.0555    0.00245 22.7   <0.001 375.0 0.0507 0.0603
                     8000   0.0555    0.00245 22.7   <0.001 375.0 0.0507 0.0603
--- 3491 rows omitted. See ?print.marginaleffects ---
…
