Problem Set 1
…
Question 1

The Environmental Protection Agency houses the Landfill Methane Outreach Program (LMOP). The LMOP has a database which contains information such as the physical address, latitude and longitude, owner/operator organization, operational status, year opened, actual or expected closure year, design capacity, amount of waste in place, gas collection system status and landfill gas (LFG) collected amount for 2,641 (observations) municipal solid waste landfills.

# Read Excel file 

Landfills = read_xlsx("landfilllmopdata.xlsx", sheet = 2) %>% 
  janitor::clean_names()
 
Landfills 

# A tibble: 2,641 × 42
   ghgrp_id landfill_id landfill_name      state landfill_alias physical_address
      <dbl>       <dbl> <chr>              <chr> <chr>          <chr>           
 1  1007341        1994 Anchorage Regiona… AK    <NA>           "15500 E. Eagle…
 2  1010389       11941 Capitol Disposal … AK    <NA>           "5600 Tonsgard …
 3  1005349       12216 Central Peninsula… AK    Soldotna Land… "46915 Sterling…
 4       NA       10960 Kodiak Island Bor… AK    <NA>           "1203 Monashka …
 5  1004380       11020 Merrill Field Lan… AK    <NA>           "800 Merrill Fi…
 6  1011448       10980 Palmer Central La… AK    Matanuska-Sus… "1201 N. 49th S…
 7  1006806       10961 South Cushman Lan… AK    Fairbanks Nor… "455 Sanduri St…
 8       NA       11000 Unalaska Landfill  AK    <NA>           "1181 Summer Ba…
 9  1001297       10860 Arrowhead Landfill AL    Perry County … "On Cahaba Road…
10       NA          27 Athens/Limestone … AL    <NA>           "Strain Road\r\…
# ℹ 2,631 more rows
# ℹ 36 more variables: city <chr>, county <chr>, zip_code <chr>,
#   latitude <dbl>, longitude <dbl>, composting <chr>, ownership_type <chr>,
#   landfill_owner_organization_s <chr>, landfill_operator_organization <chr>,
#   year_landfill_opened <dbl>, landfill_closure_year <dbl>,
#   current_landfill_status <chr>, design_landfill_area_acres <dbl>,
#   current_landfill_area_acres <dbl>, design_landfill_depth_feet <dbl>, …
…
I will cross the to find all the possible combinations of values from the most to least amount of waste in place.

scenario = crossing(
  waste_in_place_thousand_tons = seq(
    min(new_landfills$waste_in_place_thousand_tons, na.rm = TRUE),
    max(new_landfills$waste_in_place_thousand_tons, na.rm = TRUE)),
  
  current_landfill_status = 
    mean(new_landfills$current_landfill_status, na.rm = TRUE))

preds = augment(land_mod, newdata = scenario, se_fit = TRUE,
                interval = "confidence")
preds

# A tibble: 142,251 × 6
   waste_in_place_thousan…¹ current_landfill_sta…² .fitted .lower .upper .se.fit
                      <dbl>                  <dbl>   <dbl>  <dbl>  <dbl>   <dbl>
 1                    0.187                  0.479    37.1   29.9   44.2    3.65
 2                    1.19                   0.479    37.1   29.9   44.3    3.65
 3                    2.19                   0.479    37.1   29.9   44.3    3.65
 4                    3.19                   0.479    37.1   29.9   44.3    3.65
 5                    4.19                   0.479    37.1   29.9   44.3    3.65
 6                    5.19                   0.479    37.1   29.9   44.3    3.65
 7                    6.19                   0.479    37.1   29.9   44.3    3.65
 8                    7.19                   0.479    37.1   30.0   44.3    3.65
 9                    8.19                   0.479    37.1   30.0   44.3    3.65
10                    9.19                   0.479    37.1   30.0   44.3    3.65
# ℹ 142,241 more rows
# ℹ abbreviated names: ¹​waste_in_place_thousand_tons, ²​current_landfill_status
…
